results <- read.csv("results.txt",head=FALSE, sep=",")
colnames(results) <- c("n","popsize","parsize","t","success","mutop","repr", "zeta", "diff")
colnames(results) <- c("n","popsize","parsize","t","success","mutop","repr", "zeta")
results
results <- read.csv("results1.txt",head=FALSE, sep=",")
colnames(results) <- c("n","popsize","parsize","t","success","mutop","repr", "zeta")
results
colnames(results)
colnames(results) <- c("n","popsize","parsize","t","success","mutop", "alpha", "repr", "zeta", "diff")
colnames(results) <- c("n","popsize","parsize","t","success","mutop", "alpha", "repr", "zeta")
colnames(results)
